<svg width ="16" height ="16" xmlns="http://www.w3.org/2000/svg" viewBox="0 0 30 28.43">
  <defs>
    <style>.cls-1{fill:#FFFFFF;}</style>
  </defs>
  <title>he_thong</title>
  <g id="Layer_2" data-name="Layer 2">
    <g id="Layer_1-2" data-name="Layer 1">
      <path class="cls-1" d="M7.25,12.24a4.35,4.35,0,1,1,8.42,1.54h5.6a9.83,9.83,0,0,0-.09-3.56l1.75-1.55a.81.81,0,0,0,.16-1L21.31,4.58a.81.81,0,0,0-1-.36L18.13,5a9.81,9.81,0,0,0-3.48-2L14.18.65A.81.81,0,0,0,13.39,0H9.82A.81.81,0,0,0,9,.65L8.55,2.94A9.78,9.78,0,0,0,5.07,5L2.85,4.21a.81.81,0,0,0-1,.36L.11,7.67a.81.81,0,0,0,.16,1L2,10.23a9.82,9.82,0,0,0,0,4L.27,15.81a.81.81,0,0,0-.16,1l1.78,3.09a.81.81,0,0,0,1,.36l2.22-.74a9.8,9.8,0,0,0,3.48,2L9,23.84a.81.81,0,0,0,.8.65h2.76v-8a4.35,4.35,0,0,1-5.33-4.24Zm0,0"/>
      <path class="cls-1" d="M29.27,14.93H14.46a.73.73,0,0,0-.73.73v12a.73.73,0,0,0,.73.73H29.27A.73.73,0,0,0,30,27.7v-12a.73.73,0,0,0-.73-.73ZM27.9,26.4H15.83V19.15H27.9Zm0,0"/>
      <path class="cls-1" d="M20.47,24.89a.87.87,0,0,0,1.24,0l3.17-3.17a.87.87,0,1,0-1.24-1.24L21.08,23l-1-1a.87.87,0,1,0-1.24,1.24Zm0,0"/>
    </g>
  </g>
</svg>